[
  {
    "name": "\u041c\u0438\u0440\u043e\u043d \u0411\u0430\u0431\u02bc\u044f\u043a",
    "phone": "+38 (059) 324-12-21",
    "e-mail": "vtsymbaliuk@i.ua",
    "address": "\u043d\u0430\u0431\u0435\u0440\u0435\u0436\u043d\u0430 \u0413\u043e\u0440\u0456\u0448\u043d\u044f \u0411\u0440\u0430\u043c\u0430, 5, \u0441\u0435\u043b\u043e \u0410\u043d\u0442\u043e\u043d, 32462"
  },
  {
    "name": "\u0414\u0430\u043d\u043d\u0430 \u0427\u043e\u0440\u043d\u043e\u0432\u0456\u043b",
    "phone": "+38 (024) 424-68-50",
    "e-mail": "ztkachenko@i.ua",
    "address": "\u0432\u0443\u043b\u0438\u0446\u044f \u0412\u043e\u043b\u043e\u0434\u0438\u043c\u0438\u0440\u0430 \u0406\u0432\u0430\u0441\u044e\u043a\u0430, 1, \u043c\u0456\u0441\u0442\u043e \u0414\u0430\u043d, 15664"
  },
  {
    "name": "\u0412\u0430\u043b\u0435\u043d\u0442\u0438\u043d \u0414\u0437\u044e\u0431\u0430",
    "phone": "+38 045 887-48-70",
    "e-mail": "illiagerega@vivcharenko-zhuchenko.ua",
    "address": "\u043d\u0430\u0431\u0435\u0440\u0435\u0436\u043d\u0430 \u0413\u0430\u0439\u0434\u0430\u043c\u0430\u0446\u044c\u043a\u0430, 0, \u0441\u0435\u043b\u0438\u0449\u0435 \u0406\u0440\u0435\u043d\u0430, 87130"
  },
  {
    "name": "\u0411\u043e\u0440\u0438\u0441 \u0416\u0443\u0447\u0435\u043d\u043a\u043e",
    "phone": "+38 079 763-16-39",
    "e-mail": "artemenkoandrii@meta.ua",
    "address": "\u043d\u0430\u0431\u0435\u0440\u0435\u0436\u043d\u0430 \u0412\u043e\u043b\u043e\u0434\u0438\u043c\u0438\u0440\u0430 \u0427\u0430\u043f\u0435\u043b\u044c\u0441\u044c\u043a\u043e\u0433\u043e, 67, \u043c\u0456\u0441\u0442\u043e \u0410\u043d\u0434\u0440\u0456\u0439, 73931"
  },
  {
    "name": "\u043f\u0430\u043d \u0421\u0435\u043c\u0435\u043d \u0414\u0440\u043e\u0437\u0434",
    "phone": "+38 031 120-75-57",
    "e-mail": "vashchenko-zakharchenkosnizhana@sliusar.net",
    "address": "\u0432\u0443\u043b\u0438\u0446\u044f \u0420\u0456\u043f\u043d\u0438\u0446\u044c\u043a\u0430, 133, \u043c\u0456\u0441\u0442\u043e \u0413\u0435\u043e\u0440\u0433\u0456\u0439, 52304"
  },
  {
    "name": "\u041e\u0445\u0440\u0456\u043c \u041c\u0456\u0440\u043e\u0448\u043d\u0438\u0447\u0435\u043d\u043a\u043e",
    "phone": "+38 003 425-84-92",
    "e-mail": "iukhym88@meta.ua",
    "address": "\u043d\u0430\u0431\u0435\u0440\u0435\u0436\u043d\u0430 \u0406\u043b\u043b\u0456 \u0420\u0454\u043f\u0456\u043d\u0430, 04, \u043c\u0456\u0441\u0442\u043e \u0406\u043b\u043b\u044f, 53686"
  },
  {
    "name": "\u0421\u0442\u0430\u043d\u0456\u0441\u043b\u0430\u0432 \u0412\u043b\u043e\u0445",
    "phone": "038 753 10 75",
    "e-mail": "zabarnyiiakiv@kovpak.info",
    "address": "\u043d\u0430\u0431\u0435\u0440\u0435\u0436\u043d\u0430 \u0419\u043e\u0441\u0438\u043f\u0430 \u0421\u043b\u0456\u043f\u043e\u0433\u043e, 38, \u0445\u0443\u0442\u0456\u0440 \u041f\u0430\u043d\u0430\u0441, 04279"
  },
  {
    "name": "\u0410\u0440\u0442\u0435\u043c \u041a\u043e\u0440\u043e\u043b\u0435\u043d\u043a\u043e",
    "phone": "991 88 35",
    "e-mail": "dchuiko@gov.ua",
    "address": "\u0432\u0443\u043b\u0438\u0446\u044f \u0420\u0456\u0432\u043d\u0430, 9, \u0445\u0443\u0442\u0456\u0440 \u041c\u0456\u043b\u0435\u043d\u0430, 99599"
  },
  {
    "name": "\u041e\u0445\u0440\u0456\u043c \u041c\u0438\u0445\u0430\u043b\u044e\u043a",
    "phone": "174 84 41",
    "e-mail": "zhuzenko@syrotenko-kovalenko.net",
    "address": "\u0432\u0443\u043b\u0438\u0446\u044f \u041c\u0438\u0445\u0430\u0439\u043b\u0430 \u0413\u0440\u0443\u0448\u0435\u0432\u0441\u044c\u043a\u043e\u0433\u043e, 299, \u0441\u0435\u043b\u043e \u041b\u0435\u0432\u043a\u043e, 97407"
  },
  {
    "name": "\u0420\u0443\u0441\u043b\u0430\u043d \u0410\u0442\u0430\u043c\u0430\u043d\u044e\u043a",
    "phone": "+38 036 269-87-76",
    "e-mail": "alazarenko@artemenko-okhrimenko.com",
    "address": "\u043d\u0430\u0431\u0435\u0440\u0435\u0436\u043d\u0430 \u0412\u043e\u043b\u043e\u0434\u0438\u043c\u0438\u0440\u0430 \u0427\u0430\u043f\u0435\u043b\u044c\u0441\u044c\u043a\u043e\u0433\u043e, 441, \u0441\u0435\u043b\u043e \u0419\u043e\u0441\u0438\u043f, 66462"
  },
  {
    "name": "\u0421\u0442\u0430\u043d\u0456\u0441\u043b\u0430\u0432 \u041a\u043e\u0432\u0430\u043b\u044e\u043a",
    "phone": "+38 078 890 70 98",
    "e-mail": "lbandurka@meta.ua",
    "address": "\u043d\u0430\u0431\u0435\u0440\u0435\u0436\u043d\u0430 \u041f\u0430\u043d\u0430\u0441\u0430 \u041c\u0438\u0440\u043d\u043e\u0433\u043e, 32, \u0441\u0435\u043b\u0438\u0449\u0435 \u0412\u02bc\u044f\u0447\u0435\u0441\u043b\u0430\u0432, 81349"
  },
  {
    "name": "\u043f\u0430\u043d \u0412\u0435\u043d\u0456\u044f\u043c\u0438\u043d \u0421\u043a\u043e\u043f\u0435\u043d\u043a\u043e",
    "phone": "013 003-63-72",
    "e-mail": "borysmishchenko@ukr.net",
    "address": "\u043d\u0430\u0431\u0435\u0440\u0435\u0436\u043d\u0430 \u041b\u0456\u0448\u043d\u044f\u043d\u0441\u044c\u043a\u0430, 6, \u0445\u0443\u0442\u0456\u0440 \u0422\u0430\u0440\u0430\u0441, 67283"
  },
  {
    "name": "\u041e\u0440\u0438\u0441\u044f \u0414\u0435\u0440\u043a\u0430\u0447",
    "phone": "+38 061 090-38-59",
    "e-mail": "ivanenkokostiantyn@yaremchuk.ukr",
    "address": "\u0432\u0443\u043b\u0438\u0446\u044f \u0406\u0432\u0430\u043d\u0430 \u0421\u0456\u0440\u043a\u0430, 089, \u0441\u0435\u043b\u043e \u041e\u0441\u0442\u0430\u043f, 84575"
  },
  {
    "name": "\u042f\u043a\u0456\u0432 \u0421\u043b\u044e\u0441\u0430\u0440",
    "phone": "078 986 30 52",
    "e-mail": "aaronhaievskyi@shelest-yerchenko.com",
    "address": "\u043d\u0430\u0431\u0435\u0440\u0435\u0436\u043d\u0430 \u0410\u043d\u0442\u043e\u043d\u0430 \u0427\u0435\u0445\u043e\u0432\u0430, 8, \u0445\u0443\u0442\u0456\u0440 \u0414\u0430\u0432\u0438\u0434, 96396"
  },
  {
    "name": "\u0411\u043e\u0440\u0438\u0441\u043b\u0430\u0432 \u0410\u0431\u0440\u0430\u0433\u0430\u043c\u043e\u0432\u0441\u044c\u043a\u0438\u0439",
    "phone": "+38 001 710-81-42",
    "e-mail": "zkovpak@email.ua",
    "address": "\u043d\u0430\u0431\u0435\u0440\u0435\u0436\u043d\u0430 \u0414\u043c\u0438\u0442\u0440\u0430 \u0413\u0440\u0438\u0446\u0430\u044f, 88, \u043c\u0456\u0441\u0442\u043e \u042f\u0440\u043e\u0441\u043b\u0430\u0432, 85241"
  },
  {
    "name": "\u043f\u0430\u043d \u0421\u0442\u0435\u0444\u0430\u043d \u0404\u0441\u0438\u043f\u0435\u043d\u043a\u043e",
    "phone": "499 16 66",
    "e-mail": "qperepelytsia@email.ua",
    "address": "\u0432\u0443\u043b\u0438\u0446\u044f \u0412\u043e\u043b\u043e\u0434\u0438\u043c\u0438\u0440\u0430 \u0412\u0435\u0440\u043d\u0430\u0434\u0441\u044c\u043a\u043e\u0433\u043e, 814, \u0441\u0435\u043b\u0438\u0449\u0435 \u0410\u043b\u0435\u0432\u0442\u0438\u043d, 25925"
  },
  {
    "name": "\u0410\u043d\u0436\u0435\u043b\u0430 \u0410\u043d\u0434\u0440\u043e\u0449\u0443\u043a",
    "phone": "+38 098 311-82-87",
    "e-mail": "irenaprokopovych@gmail.com",
    "address": "\u043d\u0430\u0431\u0435\u0440\u0435\u0436\u043d\u0430 \u0428\u0435\u0432\u0441\u044c\u043a\u0430, 07, \u043c\u0456\u0441\u0442\u043e \u041c\u0438\u0440\u043e\u043d, 75606"
  },
  {
    "name": "\u041e\u0440\u0445\u0438\u043f \u041a\u0430\u0431\u0430\u043d\u0435\u043d\u043a\u043e",
    "phone": "085-70-38",
    "e-mail": "tetiana92@gmail.com",
    "address": "\u043d\u0430\u0431\u0435\u0440\u0435\u0436\u043d\u0430 \u041f\u0430\u0440\u043a\u043e\u0432\u0430, 2, \u043c\u0456\u0441\u0442\u043e \u041a\u043b\u0430\u0432\u0434\u0456\u044f, 38500"
  },
  {
    "name": "\u0420\u043e\u043a\u0441\u043e\u043b\u0430\u043d\u0430 \u0411\u0435\u0437\u0431\u043e\u0440\u043e\u0434\u044c\u043a\u043e",
    "phone": "+38 073 076-07-07",
    "e-mail": "amaliiamakarenko@abramenko.ukr",
    "address": "\u043d\u0430\u0431\u0435\u0440\u0435\u0436\u043d\u0430 \u0419\u043e\u0441\u0438\u0444\u0430 \u0421\u0442\u0430\u0434\u043d\u0438\u043a\u0430, 11, \u043c\u0456\u0441\u0442\u043e \u041c\u0438\u0440\u043e\u0441\u043b\u0430\u0432, 74131"
  },
  {
    "name": "\u0421\u043e\u043b\u043e\u043c\u0456\u044f \u0404\u0440\u043e\u0448\u0435\u043d\u043a\u043e",
    "phone": "809-78-59",
    "e-mail": "levkodevdiuk@gmail.com",
    "address": "\u0432\u0443\u043b\u0438\u0446\u044f \u0412\u043e\u043b\u043e\u0434\u0438\u043c\u0438\u0440\u0430 \u0427\u0430\u043f\u0435\u043b\u044c\u0441\u044c\u043a\u043e\u0433\u043e, 899, \u0441\u0435\u043b\u043e \u041e\u043b\u0435\u0433, 92265"
  },
  {
    "name": "\u0413\u0430\u043b\u0438\u043d\u0430 \u0411\u0430\u0439\u0440\u0430\u043a",
    "phone": "+38 015 009 90 13",
    "e-mail": "mykytapavlychenko@meta.ua",
    "address": "\u0432\u0443\u043b\u0438\u0446\u044f \u041a\u0438\u0440\u0438\u043b\u043e - \u041c\u0435\u0444\u043e\u0434\u0456\u0457\u0432\u0441\u044c\u043a\u0430, 24, \u0445\u0443\u0442\u0456\u0440 \u041b\u0456\u0437\u0430, 37458"
  },
  {
    "name": "\u0414\u0430\u043d\u0438\u043b\u043e \u0413\u0430\u0439\u0434\u0430",
    "phone": "071 053 34 55",
    "e-mail": "kharchenkodavyd@yevtushok.info",
    "address": "\u0432\u0443\u043b\u0438\u0446\u044f \u041a\u0440\u0443\u0448\u0435\u043b\u044c\u043d\u0438\u0446\u044c\u043a\u043e\u0457, 7, \u043c\u0456\u0441\u0442\u043e \u0410\u043d\u0436\u0435\u043b\u0430, 03518"
  },
  {
    "name": "\u0414\u0430\u043d\u0438\u043b\u043e \u0410\u0440\u043e\u043d\u0435\u0446\u044c",
    "phone": "087 72 86",
    "e-mail": "leonid11@meta.ua",
    "address": "\u043d\u0430\u0431\u0435\u0440\u0435\u0436\u043d\u0430 \u0420\u0438\u0445\u0442\u0438\u0446\u044c\u043a\u0430, 84, \u0445\u0443\u0442\u0456\u0440 \u0422\u0435\u0440\u0435\u0437\u0430, 61052"
  },
  {
    "name": "\u0406\u043b\u043b\u044f \u0412\u043e\u0432\u043a",
    "phone": "008 148 02 99",
    "e-mail": "marta05@kozak-bandura.org",
    "address": "\u0432\u0443\u043b\u0438\u0446\u044f \u0411\u043e\u0440\u0438\u0441\u043b\u0430\u0432\u0441\u044c\u043a\u0430, 4, \u043c\u0456\u0441\u0442\u043e \u0404\u0432\u0430, 05436"
  },
  {
    "name": "\u041a\u0430\u043c\u0456\u043b\u043b\u0430 \u041c\u0430\u043b\u0438\u043a",
    "phone": "078 814 80 50",
    "e-mail": "heorhii44@yurchuk.org",
    "address": "\u0432\u0443\u043b\u0438\u0446\u044f \u0406\u0432\u0430\u043d\u0430 \u041a\u043e\u0442\u043b\u044f\u0440\u0435\u0432\u0441\u044c\u043a\u043e\u0433\u043e, 49, \u0441\u0435\u043b\u043e \u0421\u0432\u044f\u0442\u043e\u0441\u043b\u0430\u0432\u0430, 32305"
  },
  {
    "name": "\u0411\u043e\u0433\u0434\u0430\u043d\u043d\u0430 \u0410\u0441\u0430\u0443\u043b\u0430",
    "phone": "+38 097 310-73-85",
    "e-mail": "iustynaskoryk@meta.ua",
    "address": "\u043d\u0430\u0431\u0435\u0440\u0435\u0436\u043d\u0430 \u041e\u0441\u0442\u0430\u043f\u0430 \u0412\u0438\u0448\u043d\u0456, 58, \u043c\u0456\u0441\u0442\u043e \u041c\u0438\u0445\u0430\u0439\u043b\u0438\u043d\u0430, 58220"
  },
  {
    "name": "\u042f\u0440\u043e\u0441\u043b\u0430\u0432\u0430 \u0412\u0438\u0448\u0438\u0432\u0430\u043d\u0438\u0439",
    "phone": "665 33 93",
    "e-mail": "violettahaida@chervonenko.ukr",
    "address": "\u043d\u0430\u0431\u0435\u0440\u0435\u0436\u043d\u0430 \u042f\u043a\u043e\u0432\u0430 \u0413\u043e\u043b\u043e\u0432\u0430\u0446\u044c\u043a\u043e\u0433\u043e, 06, \u0441\u0435\u043b\u043e \u041a\u043b\u0430\u0432\u0434\u0456\u044f, 84259"
  },
  {
    "name": "\u0423\u0441\u0442\u0438\u043c \u0428\u0438\u044f\u043d",
    "phone": "+38 023 080-30-21",
    "e-mail": "violetta72@gov.ua",
    "address": "\u0432\u0443\u043b\u0438\u0446\u044f \u041c\u0438\u0445\u0430\u0439\u043b\u0430 \u0421\u0442\u0430\u0440\u0438\u0446\u044c\u043a\u043e\u0433\u043e, 06, \u0441\u0435\u043b\u0438\u0449\u0435 \u041f\u0438\u043b\u0438\u043f, 76824"
  },
  {
    "name": "\u0406\u0440\u0438\u043d\u0430 \u0417\u0430\u0440\u0443\u0434\u043d\u0438\u0439",
    "phone": "645 89 59",
    "e-mail": "lukiantsiupa@shmorhun.ukr",
    "address": "\u043d\u0430\u0431\u0435\u0440\u0435\u0436\u043d\u0430 \u041c\u0438\u0445\u0430\u0439\u043b\u0430 \u0412\u0435\u0440\u0431\u0438\u0446\u044c\u043a\u043e\u0433\u043e, 830, \u0441\u0435\u043b\u043e \u041f\u0440\u0456\u0441\u043a\u0430, 72924"
  },
  {
    "name": "\u0413\u043b\u0456\u0431 \u0412\u0430\u0441\u0438\u043b\u0430\u0448\u043a\u043e",
    "phone": "+38 (023) 785-53-45",
    "e-mail": "kabanenkodanylo@email.ua",
    "address": "\u0432\u0443\u043b\u0438\u0446\u044f \u0422\u0440\u0443\u0441\u043a\u0430\u0432\u0435\u0446\u044c\u043a\u0430, 41, \u0441\u0435\u043b\u0438\u0449\u0435 \u041c\u0438\u043a\u043e\u043b\u0430\u0439, 61208"
  },
  {
    "name": "\u042f\u0440\u043e\u0441\u043b\u0430\u0432 \u0413\u0430\u0432\u0440\u0438\u043b\u044e\u043a",
    "phone": "+38 034 656 39 20",
    "e-mail": "vadymmedvedenko@shchyrytsia-ishchenko.com",
    "address": "\u0432\u0443\u043b\u0438\u0446\u044f \u0414\u043c\u0438\u0442\u0440\u0430 \u0411\u0443\u0440\u043a\u0430, 12, \u0441\u0435\u043b\u043e \u0411\u043e\u0433\u0434\u0430\u043d, 12160"
  },
  {
    "name": "\u0410\u0432\u0440\u0435\u043b\u0456\u0439 \u0412\u043e\u0431\u043b\u0438\u0439",
    "phone": "022 515-14-79",
    "e-mail": "okhrimshvaika@gmail.com",
    "address": "\u0432\u0443\u043b\u0438\u0446\u044f \u041c\u0430\u043a\u0441\u0438\u043c\u0430 \u0417\u0430\u043b\u0456\u0437\u043d\u044f\u043a\u0430, 6, \u0445\u0443\u0442\u0456\u0440 \u041e\u043b\u0435\u0441\u044c, 12953"
  },
  {
    "name": "\u0410\u043b\u0435\u0432\u0442\u0438\u043d \u0411\u0430\u0431\u02bc\u044f\u043a",
    "phone": "+38 007 338-78-41",
    "e-mail": "oleksa46@meta.ua",
    "address": "\u043d\u0430\u0431\u0435\u0440\u0435\u0436\u043d\u0430 \u041a\u0430\u0440\u043f\u0430\u0442\u0441\u044c\u043a\u0430, 0, \u043c\u0456\u0441\u0442\u043e \u0411\u043e\u0433\u043e\u0434\u0430\u0440, 84667"
  },
  {
    "name": "\u043f\u0430\u043d \u0406\u043b\u043b\u044f \u0417\u0430\u0442\u043e\u0432\u043a\u0430\u043d\u044e\u043a",
    "phone": "+38 (069) 929-60-83",
    "e-mail": "rshvachko@gmail.com",
    "address": "\u043d\u0430\u0431\u0435\u0440\u0435\u0436\u043d\u0430 \u042e\u0440\u0456\u044f \u0424\u0435\u0434\u044c\u043a\u043e\u0432\u0438\u0447\u0430, 45, \u0441\u0435\u043b\u043e \u041e\u0434\u0430\u0440\u043a\u0430, 19684"
  },
  {
    "name": "\u0410\u0440\u0441\u0435\u043d \u042f\u0440\u0435\u043c\u0430",
    "phone": "028 650 21 43",
    "e-mail": "datsenkovolodymyr@gov.ua",
    "address": "\u043d\u0430\u0431\u0435\u0440\u0435\u0436\u043d\u0430 \u0406\u0432\u0430\u043d\u0430 \u041f\u0456\u0434\u043a\u043e\u0432\u0438, 31, \u0441\u0435\u043b\u0438\u0449\u0435 \u0412\u043e\u043b\u043e\u0434\u0438\u043c\u0438\u0440, 66647"
  },
  {
    "name": "\u043f\u0430\u043d\u0456 \u0417\u043b\u0430\u0442\u043e\u0441\u043b\u0430\u0432\u0430 \u0412\u043b\u0430\u0441\u044e\u043a",
    "phone": "058 020 75 71",
    "e-mail": "iaremadrobiazko@andreiko.com",
    "address": "\u043d\u0430\u0431\u0435\u0440\u0435\u0436\u043d\u0430 \u041f\u0435\u0442\u0440\u0430 \u0414\u043e\u0440\u043e\u0448\u0435\u043d\u043a\u0430, 5, \u0441\u0435\u043b\u043e \u041b\u044e\u0434\u043c\u0438\u043b\u0430, 96277"
  },
  {
    "name": "\u0412\u0456\u043a\u0442\u043e\u0440\u0456\u044f \u0413\u0443\u0446\u0443\u043b\u044f\u043a",
    "phone": "876 44 80",
    "e-mail": "maksym27@gmail.com",
    "address": "\u043d\u0430\u0431\u0435\u0440\u0435\u0436\u043d\u0430 \u041a\u043e\u0437\u0430\u0446\u044c\u043a\u0430, 5, \u0445\u0443\u0442\u0456\u0440 \u041c\u0438\u0445\u0430\u0439\u043b\u0438\u043d\u0430, 79342"
  },
  {
    "name": "\u041e\u043b\u044c\u0433\u0430 \u0410\u0441\u0430\u0443\u043b\u0430",
    "phone": "090 752-76-14",
    "e-mail": "larysa43@dakhno.info",
    "address": "\u043d\u0430\u0431\u0435\u0440\u0435\u0436\u043d\u0430 \u0412\u043e\u043b\u043e\u0434\u0438\u043c\u0438\u0440\u0430 \u0427\u0430\u043f\u0435\u043b\u044c\u0441\u044c\u043a\u043e\u0433\u043e, 97, \u043c\u0456\u0441\u0442\u043e \u0414\u0430\u0432\u0438\u0434, 01681"
  },
  {
    "name": "\u0412\u0456\u043a\u0442\u043e\u0440\u0456\u044f \u0426\u0443\u0448\u043a\u043e",
    "phone": "021 097-65-34",
    "e-mail": "hryhoriihavriushenko@pavlenko.ua",
    "address": "\u0432\u0443\u043b\u0438\u0446\u044f \u0428\u043a\u0456\u043b\u044c\u043d\u0430, 872, \u043c\u0456\u0441\u0442\u043e \u041f\u0438\u043b\u0438\u043f, 04735"
  },
  {
    "name": "\u043f\u0430\u043d \u0412\u0456\u0442\u0430\u043b\u0456\u0439 \u0420\u0435\u0432\u0430",
    "phone": "+38 086 805-86-12",
    "e-mail": "anzhela74@i.ua",
    "address": "\u0432\u0443\u043b\u0438\u0446\u044f \u041e\u0441\u0442\u0430\u043f\u0430 \u0412\u0438\u0448\u043d\u0456, 2, \u0441\u0435\u043b\u0438\u0449\u0435 \u041c\u0438\u043a\u0438\u0442\u0430, 106202"
  },
  {
    "name": "\u0406\u0433\u043d\u0430\u0442 \u0413\u0430\u0439\u0434\u0430\u0431\u0443\u0440\u0430",
    "phone": "+38 060 306-74-84",
    "e-mail": "mariana99@gmail.com",
    "address": "\u043d\u0430\u0431\u0435\u0440\u0435\u0436\u043d\u0430 \u0406\u0432\u0430\u043d\u0430 \u0424\u0440\u0430\u043d\u043a\u0430, 391, \u0445\u0443\u0442\u0456\u0440 \u041e\u0440\u0438\u043d\u0430, 88251"
  },
  {
    "name": "\u041e\u043b\u0435\u0441\u044c \u042f\u0446\u0435\u043d\u044e\u043a",
    "phone": "+38 027 416-05-79",
    "e-mail": "viakymenko@gmail.com",
    "address": "\u0432\u0443\u043b\u0438\u0446\u044f \u041a\u043e\u0437\u0430\u0446\u044c\u043a\u0430, 81, \u043c\u0456\u0441\u0442\u043e \u0412\u0430\u0441\u0438\u043b\u0438\u043d\u0430, 88276"
  },
  {
    "name": "\u0414\u0435\u043c\u0438\u0434 \u0412\u0456\u0432\u0447\u0430\u0440\u0435\u043d\u043a\u043e",
    "phone": "+38 (032) 230-45-39",
    "e-mail": "priska00@email.ua",
    "address": "\u0432\u0443\u043b\u0438\u0446\u044f \u041a\u0430\u0440\u043f\u0430\u0442\u0441\u044c\u043a\u0430, 35, \u043c\u0456\u0441\u0442\u043e \u0413\u0430\u043d\u043d\u0430, 78212"
  },
  {
    "name": "\u0414\u0435\u043c\u02bc\u044f\u043d \u0414\u0430\u043d\u044c\u043a\u043e",
    "phone": "+38 049 395-35-74",
    "e-mail": "marynazarudnyi@gov.ua",
    "address": "\u043d\u0430\u0431\u0435\u0440\u0435\u0436\u043d\u0430 \u0423\u043b\u044f\u043d\u0438 \u041a\u0440\u0430\u0432\u0447\u0435\u043d\u043a\u043e, 811, \u0441\u0435\u043b\u043e \u042f\u0440\u043e\u0441\u043b\u0430\u0432\u0430, 59848"
  },
  {
    "name": "\u0415\u043c\u0456\u043b\u0456\u044f \u0412\u0430\u0442\u0430\u043c\u0430\u043d\u044e\u043a",
    "phone": "+38 024 437 53 40",
    "e-mail": "panteleimondotsenko@i.ua",
    "address": "\u043d\u0430\u0431\u0435\u0440\u0435\u0436\u043d\u0430 \u0424\u0430\u0431\u0440\u0438\u0447\u043d\u0430, 87, \u0445\u0443\u0442\u0456\u0440 \u0413\u0435\u0440\u043c\u0430\u043d , 59753"
  },
  {
    "name": "\u0404\u043b\u0438\u0441\u0430\u0432\u0435\u0442\u0430 \u0406\u0432\u0430\u043d\u0438\u0447\u0443\u043a",
    "phone": "009 703 44 13",
    "e-mail": "shelesttymofii@email.ua",
    "address": "\u043d\u0430\u0431\u0435\u0440\u0435\u0436\u043d\u0430 \u041c\u043e\u0434\u0435\u0441\u0442\u0430 \u041c\u0435\u043d\u0446\u0438\u043d\u0441\u044c\u043a\u043e\u0433\u043e, 076, \u0445\u0443\u0442\u0456\u0440 \u0415\u043c\u0456\u043b\u0456\u044f, 14895"
  },
  {
    "name": "\u042e\u0441\u0442\u0438\u043d\u0430 \u041d\u0435\u043f\u043e\u0440\u043e\u0436\u043d\u0456\u0439",
    "phone": "000 114-20-41",
    "e-mail": "iukhymshvedchenko@ukr.net",
    "address": "\u0432\u0443\u043b\u0438\u0446\u044f \u041e\u043b\u0435\u043d\u0438 \u0422\u0435\u043b\u0456\u0433\u0438, 90, \u0445\u0443\u0442\u0456\u0440 \u041c\u0430\u0440\u0442\u0438\u043d, 45988"
  },
  {
    "name": "\u041c\u0438\u0445\u0430\u0439\u043b\u043e \u041f\u0440\u043e\u043a\u043e\u043f\u043e\u0432\u0438\u0447",
    "phone": "768 76 66",
    "e-mail": "shcherbanpetro@fesenko-sirobaba.info",
    "address": "\u043d\u0430\u0431\u0435\u0440\u0435\u0436\u043d\u0430 \u0414\u043c\u0438\u0442\u0440\u0430 \u041a\u043e\u0442\u043a\u0430, 86, \u0441\u0435\u043b\u0438\u0449\u0435 \u0410\u043b\u044c\u0431\u0435\u0440\u0442, 82842"
  },
  {
    "name": "\u0410\u043d\u0436\u0435\u043b\u0430 \u0420\u043e\u043c\u0430\u043d\u0435\u043d\u043a\u043e",
    "phone": "890-47-71",
    "e-mail": "nosenkooles@gmail.com",
    "address": "\u0432\u0443\u043b\u0438\u0446\u044f \u0414\u0430\u043d\u0438\u043b\u0430 \u0413\u0430\u043b\u0438\u0446\u044c\u043a\u043e\u0433\u043e, 4, \u0445\u0443\u0442\u0456\u0440 \u0410\u043d\u0442\u043e\u043d, 85625"
  },
  {
    "name": "\u041c\u0438\u0440\u043e\u043d \u0404\u0440\u0435\u0441\u044c\u043a\u043e",
    "phone": "+38 (029) 408-69-48",
    "e-mail": "markochuiko@i.ua",
    "address": "\u0432\u0443\u043b\u0438\u0446\u044f \u0412\u043e\u043b\u043e\u0434\u0438\u043c\u0438\u0440\u0430 \u0411\u0456\u0440\u0447\u0430\u043a\u0430, 28, \u0441\u0435\u043b\u043e \u0423\u0441\u0442\u0438\u043c, 59317"
  },
  {
    "name": "\u041b\u0456\u0437\u0430 \u0411\u0430\u043d\u0434\u0443\u0440\u0430",
    "phone": "+38 033 534-14-15",
    "e-mail": "marta05@gov.ua",
    "address": "\u0432\u0443\u043b\u0438\u0446\u044f \u041a\u0438\u0440\u0438\u043b\u043e - \u041c\u0435\u0444\u043e\u0434\u0456\u0457\u0432\u0441\u044c\u043a\u0430, 80, \u0441\u0435\u043b\u043e \u041e\u043b\u0435\u0433, 106940"
  },
  {
    "name": "\u0410\u0440\u0442\u0435\u043c \u041e\u043d\u0456\u0449\u0443\u043a",
    "phone": "829 06 67",
    "e-mail": "kabaliukvenedykt@meta.ua",
    "address": "\u043d\u0430\u0431\u0435\u0440\u0435\u0436\u043d\u0430 \u041a\u0438\u0440\u0438\u043b\u043e - \u041c\u0435\u0444\u043e\u0434\u0456\u0457\u0432\u0441\u044c\u043a\u0430, 5, \u0441\u0435\u043b\u0438\u0449\u0435 \u042f\u0440\u043e\u0441\u043b\u0430\u0432, 48528"
  },
  {
    "name": "\u043f\u0430\u043d \u0410\u043d\u0434\u0440\u0456\u0439 \u0411\u0430\u0442\u044e\u043a",
    "phone": "+38 020 694-29-49",
    "e-mail": "les90@tykhyi-makarenko.info",
    "address": "\u0432\u0443\u043b\u0438\u0446\u044f \u041c\u0435\u0445\u0430\u043d\u0456\u0437\u0430\u0442\u043e\u0440\u0456\u0432, 57, \u0441\u0435\u043b\u043e \u0422\u0440\u043e\u0445\u0438\u043c, 108271"
  },
  {
    "name": "\u0417\u043b\u0430\u0442\u043e\u0441\u043b\u0430\u0432\u0430 \u041d\u0430\u043b\u0438\u0432\u0430\u0439\u043a\u043e",
    "phone": "+38 (087) 501-53-66",
    "e-mail": "lahodarozaliia@meta.ua",
    "address": "\u0432\u0443\u043b\u0438\u0446\u044f \u0410\u043d\u0434\u0440\u0456\u044f \u0427\u0430\u0439\u043a\u043e\u0432\u0441\u044c\u043a\u043e\u0433\u043e, 178, \u0441\u0435\u043b\u043e \u041e\u043b\u0435\u0441\u044c, 102765"
  },
  {
    "name": "\u041b\u0435\u043e\u043f\u043e\u043b\u044c\u0434 \u0417\u0430\u0441\u044f\u0434\u044c\u043a\u043e",
    "phone": "085 315 28 59",
    "e-mail": "okhrimovcharenko@levchenko.info",
    "address": "\u0432\u0443\u043b\u0438\u0446\u044f \u0422\u0430\u0440\u0430\u0441\u0430 \u0428\u0435\u0432\u0447\u0435\u043d\u043a\u0430, 2, \u0441\u0435\u043b\u0438\u0449\u0435 \u0412\u043e\u043b\u043e\u0434\u0438\u043c\u0438\u0440, 27795"
  },
  {
    "name": "\u0420\u043e\u0437\u0430\u043b\u0456\u044f \u0428\u0435\u0440\u0435\u043c\u0435\u0442",
    "phone": "+38 (022) 408-76-33",
    "e-mail": "pavlychenkovalentyna@petrenko.org",
    "address": "\u043d\u0430\u0431\u0435\u0440\u0435\u0436\u043d\u0430 \u0412\u043e\u043b\u043e\u0434\u0438\u043c\u0438\u0440\u0430 \u0427\u0430\u043f\u0435\u043b\u044c\u0441\u044c\u043a\u043e\u0433\u043e, 17, \u0441\u0435\u043b\u0438\u0449\u0435 \u0412\u0430\u0441\u0438\u043b\u044c, 05616"
  },
  {
    "name": "\u043f\u0430\u043d\u0456 \u041e\u043a\u0441\u0430\u043d\u0430 \u0414\u0435\u0432\u0434\u044e\u043a",
    "phone": "+38 055 306-60-31",
    "e-mail": "demian54@email.ua",
    "address": "\u0432\u0443\u043b\u0438\u0446\u044f \u0412\u043e\u043b\u043e\u0434\u0438\u043c\u0438\u0440\u0430 \u0427\u0430\u043f\u0435\u043b\u044c\u0441\u044c\u043a\u043e\u0433\u043e, 05, \u0441\u0435\u043b\u043e \u041b\u044e\u0434\u043c\u0438\u043b\u0430, 43527"
  },
  {
    "name": "\u0415\u0434\u0438\u0442\u0430 \u0412\u0435\u0440\u0433\u0443\u043d",
    "phone": "+38 070 306-24-67",
    "e-mail": "erikaarkhypenko@i.ua",
    "address": "\u0432\u0443\u043b\u0438\u0446\u044f \u0414\u0430\u043d\u0438\u043b\u0430 \u041d\u0435\u0447\u0430\u044f, 41, \u0441\u0435\u043b\u0438\u0449\u0435 \u0414\u043c\u0438\u0442\u0440\u043e, 13572"
  },
  {
    "name": "\u0417\u0430\u0445\u0430\u0440 \u0406\u043b\u044c\u0447\u0435\u043d\u043a\u043e",
    "phone": "+38 070 269-33-51",
    "e-mail": "slubenets@havrylyshyn-bevz.net",
    "address": "\u0432\u0443\u043b\u0438\u0446\u044f \u041c\u0438\u0445\u0430\u0439\u043b\u0430 \u0413\u0440\u0443\u0448\u0435\u0432\u0441\u044c\u043a\u043e\u0433\u043e, 4, \u0445\u0443\u0442\u0456\u0440 \u041e\u0440\u0445\u0438\u043f, 27187"
  },
  {
    "name": "\u0410\u0430\u0440\u043e\u043d \u0428\u0432\u0430\u0439\u043a\u0430",
    "phone": "+38 033 222 66 67",
    "e-mail": "demian11@gmail.com",
    "address": "\u0432\u0443\u043b\u0438\u0446\u044f \u0412\u043e\u043b\u043e\u0434\u0438\u043c\u0438\u0440\u0430 \u0413\u043d\u0430\u0442\u044e\u043a\u0430, 229, \u043c\u0456\u0441\u0442\u043e \u0406\u0440\u0435\u043d\u0430, 67186"
  },
  {
    "name": "\u043f\u0430\u043d\u0456 \u041d\u0430\u0434\u0456\u044f \u0410\u0442\u0430\u043c\u0430\u043d\u0447\u0443\u043a",
    "phone": "567 57 60",
    "e-mail": "shelestalbina@gmail.com",
    "address": "\u043d\u0430\u0431\u0435\u0440\u0435\u0436\u043d\u0430 \u0417\u0432\u0430\u0440\u0438\u0446\u044c\u043a\u0430, 25, \u043c\u0456\u0441\u0442\u043e \u041d\u0430\u0437\u0430\u0440, 74465"
  },
  {
    "name": "\u0412\u043e\u043b\u043e\u0434\u0438\u043c\u0438\u0440\u0430 \u041b\u0435\u0432\u0447\u0435\u043d\u043a\u043e",
    "phone": "646 02 87",
    "e-mail": "stefankorsun@i.ua",
    "address": "\u043d\u0430\u0431\u0435\u0440\u0435\u0436\u043d\u0430 \u041a\u043e\u0437\u0430\u0446\u044c\u043a\u0430, 167, \u0441\u0435\u043b\u0438\u0449\u0435 \u041f\u0430\u0432\u043b\u043e, 73086"
  },
  {
    "name": "\u041c\u0438\u043a\u0438\u0442\u0430 \u0414\u0435\u043c\u02bc\u044f\u043d\u0447\u0443\u043a",
    "phone": "032 980-79-46",
    "e-mail": "vitaliifartushniak@bashpolchenko-semenchenko.org",
    "address": "\u043d\u0430\u0431\u0435\u0440\u0435\u0436\u043d\u0430 \u041e\u0441\u0442\u0430\u043f\u0430 \u0412\u0438\u0448\u043d\u0456, 449, \u0441\u0435\u043b\u043e \u0425\u0440\u0438\u0441\u0442\u0438\u043d\u0430, 96633"
  },
  {
    "name": "\u0421\u0432\u044f\u0442\u043e\u0441\u043b\u0430\u0432 \u0410\u0432\u0440\u0430\u043c\u0447\u0443\u043a",
    "phone": "+38 (069) 040-93-56",
    "e-mail": "iakymenkomykolai@svystun-tiahnybok.ukr",
    "address": "\u043d\u0430\u0431\u0435\u0440\u0435\u0436\u043d\u0430 \u0428\u043e\u043b\u043e\u043c \u0410\u043b\u0435\u0439\u0445\u0435\u043c\u0430, 66, \u0445\u0443\u0442\u0456\u0440 \u0421\u0432\u044f\u0442\u043e\u0441\u043b\u0430\u0432, 52244"
  },
  {
    "name": "\u043f\u0430\u043d\u0456 \u0411\u043e\u0433\u0443\u0441\u043b\u0430\u0432\u0430 \u0410\u043b\u0435\u043a\u0441\u0456\u0439\u0447\u0443\u043a",
    "phone": "+38 091 890-13-32",
    "e-mail": "klymenthavrylyshyn@teslenko.com",
    "address": "\u0432\u0443\u043b\u0438\u0446\u044f \u0410\u043d\u0434\u0440\u0456\u044f \u041c\u0435\u043b\u044c\u043d\u0438\u043a\u0430, 898, \u0441\u0435\u043b\u0438\u0449\u0435 \u0410\u043d\u0430\u0441\u0442\u0430\u0441\u0456\u044f, 84516"
  },
  {
    "name": "\u043f\u0430\u043d\u0456 \u041c\u0456\u043b\u0435\u043d\u0430 \u0412\u0435\u0440\u0445\u043e\u0432\u0438\u043d\u0435\u0446\u044c",
    "phone": "+38 026 606-43-82",
    "e-mail": "favdieienko@haidenko.ukr",
    "address": "\u0432\u0443\u043b\u0438\u0446\u044f \u0423\u0441\u0442\u0438\u044f\u043d\u043e\u0432\u0438\u0447\u0456\u0432, 87, \u0445\u0443\u0442\u0456\u0440 \u0410\u043b\u044c\u0431\u0456\u043d\u0430, 56121"
  },
  {
    "name": "\u0410\u043d\u0436\u0435\u043b\u0430 \u0422\u0430\u0440\u0430\u0441\u0435\u043d\u043a\u043e",
    "phone": "386 59 47",
    "e-mail": "akorbut@dziuba.net",
    "address": "\u0432\u0443\u043b\u0438\u0446\u044f \u0421\u0442\u0430\u043d\u0456\u0441\u043b\u0430\u0432\u0430 \u041b\u044e\u0434\u043a\u0435\u0432\u0438\u0447\u0430, 444, \u0441\u0435\u043b\u043e \u0406\u0432\u0430\u043d, 33913"
  },
  {
    "name": "\u0420\u043e\u043c\u0430\u043d \u0410\u043d\u0434\u0440\u0456\u0439\u0447\u0443\u043a",
    "phone": "+38 034 411-05-96",
    "e-mail": "olenaperepelytsia@email.ua",
    "address": "\u0432\u0443\u043b\u0438\u0446\u044f \u041c\u0438\u0440\u043e\u043d\u0430 \u0422\u0430\u0440\u043d\u0430\u0432\u0441\u044c\u043a\u043e\u0433\u043e, 9, \u0445\u0443\u0442\u0456\u0440 \u0410\u043c\u0430\u043b\u0456\u044f, 55487"
  },
  {
    "name": "\u0412\u0430\u0440\u0432\u0430\u0440\u0430 \u0411\u0435\u0437\u0431\u043e\u0440\u043e\u0434\u044c\u043a\u0438",
    "phone": "+38 (017) 271-28-17",
    "e-mail": "kamilla34@ukr.net",
    "address": "\u043d\u0430\u0431\u0435\u0440\u0435\u0436\u043d\u0430 \u0413\u0430\u0439\u0434\u0430\u043c\u0430\u0446\u044c\u043a\u0430, 10, \u0441\u0435\u043b\u0438\u0449\u0435 \u0421\u0435\u0440\u0433\u0456\u0439, 106301"
  },
  {
    "name": "\u043f\u0430\u043d\u0456 \u042f\u0440\u043e\u0441\u043b\u0430\u0432\u0430 \u0414\u0435\u0440\u043a\u0430\u0447",
    "phone": "544-55-48",
    "e-mail": "vasylyna93@gov.ua",
    "address": "\u0432\u0443\u043b\u0438\u0446\u044f \u041b\u0456\u0448\u043d\u044f\u043d\u0441\u044c\u043a\u0430, 49, \u0441\u0435\u043b\u043e \u041b\u0430\u0440\u0438\u0441\u0430, 94250"
  },
  {
    "name": "\u0421\u043e\u0444\u0456\u044f \u0411\u0430\u043a\u043b\u0430\u043d",
    "phone": "+38 054 550-78-55",
    "e-mail": "lazarenkoviktor@meta.ua",
    "address": "\u043d\u0430\u0431\u0435\u0440\u0435\u0436\u043d\u0430 \u041c\u0438\u0445\u0430\u0439\u043b\u0430 \u041b\u0435\u0440\u043c\u043e\u043d\u0442\u043e\u0432\u0430, 2, \u0445\u0443\u0442\u0456\u0440 \u042f\u0440\u0435\u043c\u0430, 42892"
  },
  {
    "name": "\u043f\u0430\u043d \u041a\u0438\u0440\u0438\u043b\u043e \u041c\u0430\u043b\u0438\u0448\u043a\u043e",
    "phone": "693-75-81",
    "e-mail": "kashchenkohanna@zakharchenko.com",
    "address": "\u043d\u0430\u0431\u0435\u0440\u0435\u0436\u043d\u0430 \u0413\u043e\u0440\u0456\u0448\u043d\u044f \u0411\u0440\u0430\u043c\u0430, 60, \u0445\u0443\u0442\u0456\u0440 \u0404\u043b\u0438\u0441\u0435\u0439, 84113"
  },
  {
    "name": "\u0410\u043b\u0456\u043d\u0430 \u0420\u043e\u043c\u0430\u043d\u0435\u043d\u043a\u043e",
    "phone": "890 74 57",
    "e-mail": "romanetszorian@email.ua",
    "address": "\u043d\u0430\u0431\u0435\u0440\u0435\u0436\u043d\u0430 \u041e\u043b\u0435\u043a\u0441\u0430\u043d\u0434\u0440\u0430 \u041a\u043e\u043d\u0438\u0441\u044c\u043a\u043e\u0433\u043e, 573, \u0445\u0443\u0442\u0456\u0440 \u0415\u0434\u0438\u0442\u0430, 96439"
  },
  {
    "name": "\u041c\u0438\u043a\u0438\u0442\u0430 \u0428\u0432\u0430\u0447\u043a\u043e",
    "phone": "793 77 45",
    "e-mail": "albina78@gov.ua",
    "address": "\u0432\u0443\u043b\u0438\u0446\u044f \u0422\u0432\u0435\u0440\u0434\u043e\u0445\u043b\u0456\u0431\u0430, 169, \u0445\u0443\u0442\u0456\u0440 \u041c\u0430\u0440\u043a\u043e, 35343"
  },
  {
    "name": "\u0413\u0430\u0432\u0440\u0438\u043b\u043e \u0413\u0443\u043d\u044c\u043a\u043e",
    "phone": "+38 069 312-17-29",
    "e-mail": "ovenhrynovych@makarenko.net",
    "address": "\u0432\u0443\u043b\u0438\u0446\u044f \u0420\u0456\u0432\u043d\u0430, 8, \u0441\u0435\u043b\u043e \u041f\u0440\u0456\u0441\u043a\u0430, 61603"
  },
  {
    "name": "\u0410\u043d\u0434\u0440\u0456\u0439 \u0427\u0443\u043c\u0430\u043a",
    "phone": "+38 004 276-67-26",
    "e-mail": "stepan21@email.ua",
    "address": "\u0432\u0443\u043b\u0438\u0446\u044f \u0419\u043e\u0441\u0438\u043f\u0430 \u041b\u0435\u0432\u0438\u0446\u044c\u043a\u043e\u0433\u043e, 4, \u043c\u0456\u0441\u0442\u043e \u0410\u043b\u043b\u0430, 05401"
  },
  {
    "name": "\u0412\u0435\u043d\u0456\u044f\u043c\u0438\u043d \u0490\u0435\u0440\u0435\u0442\u0430",
    "phone": "+38 (025) 777-24-73",
    "e-mail": "valenkohanna@mishchenko-yizhak.org",
    "address": "\u0432\u0443\u043b\u0438\u0446\u044f \u0420\u0430\u043d\u0435\u0432\u0438\u0446\u044c\u043a\u0430, 3, \u0441\u0435\u043b\u0438\u0449\u0435 \u041b\u0435\u0441\u044c, 55377"
  },
  {
    "name": "\u041e\u0440\u0438\u043d\u0430 \u0421\u0432\u0438\u0440\u0438\u0434\u0435\u043d\u043a\u043e",
    "phone": "039 344-39-95",
    "e-mail": "hannaadamchuk@korpaniuk.org",
    "address": "\u043d\u0430\u0431\u0435\u0440\u0435\u0436\u043d\u0430 \u041e\u043b\u0435\u0441\u044f \u0413\u043e\u043d\u0447\u0430\u0440\u0430, 04, \u0441\u0435\u043b\u043e \u041a\u0438\u0440\u0438\u043b\u043e, 105612"
  },
  {
    "name": "\u041c\u0430\u0440\u043a\u043e \u0427\u0430\u043b\u0438\u0439",
    "phone": "+38 043 044-91-35",
    "e-mail": "akulenkoielysei@gmail.com",
    "address": "\u0432\u0443\u043b\u0438\u0446\u044f \u0412\u043e\u043b\u043e\u0434\u0438\u043c\u0438\u0440\u0430 \u0412\u0435\u043b\u0438\u043a\u043e\u0433\u043e, 462, \u043c\u0456\u0441\u0442\u043e \u0410\u043b\u044c\u0431\u0435\u0440\u0442, 71452"
  },
  {
    "name": "\u041c\u0438\u043a\u0438\u0442\u0430 \u0427\u0430\u0431\u0430\u043d",
    "phone": "095 736-18-03",
    "e-mail": "dubynaiaryna@gzhytskyi.org",
    "address": "\u0432\u0443\u043b\u0438\u0446\u044f \u0411\u0430\u0439\u0434\u0438, 1, \u0445\u0443\u0442\u0456\u0440 \u0421\u043f\u0430\u0441, 58719"
  },
  {
    "name": "\u0414\u0430\u0432\u0438\u0434 \u0490\u0430\u043b\u0430\u0491\u0430\u043d",
    "phone": "+38 082 882 54 74",
    "e-mail": "varfolomii55@deineka-pryimak.com",
    "address": "\u043d\u0430\u0431\u0435\u0440\u0435\u0436\u043d\u0430 \u0419\u043e\u0441\u0438\u0444\u0430 \u0421\u0442\u0430\u0434\u043d\u0438\u043a\u0430, 062, \u0441\u0435\u043b\u043e \u0421\u0432\u044f\u0442\u043e\u0441\u043b\u0430\u0432, 23593"
  },
  {
    "name": "\u0410\u043d\u0430\u0441\u0442\u0430\u0441\u0456\u044f \u041a\u043e\u0437\u0430\u043a",
    "phone": "862-15-09",
    "e-mail": "boleslavaleksiuk@meta.ua",
    "address": "\u043d\u0430\u0431\u0435\u0440\u0435\u0436\u043d\u0430 \u042e\u043b\u0456\u0443\u0448\u0430 \u0421\u043b\u043e\u0432\u0430\u0446\u044c\u043a\u043e\u0433\u043e, 549, \u0441\u0435\u043b\u043e \u041d\u0430\u0437\u0430\u0440, 82307"
  },
  {
    "name": "\u0406\u0440\u0438\u043d\u0430 \u041a\u043e\u043d\u043e\u043f\u043b\u044f",
    "phone": "+38 081 954-25-63",
    "e-mail": "wsamoilenko@dakhno.org",
    "address": "\u043d\u0430\u0431\u0435\u0440\u0435\u0436\u043d\u0430 \u0404\u0432\u0433\u0435\u043d\u0430 \u0413\u0440\u0435\u0431\u0456\u043d\u043a\u0438, 645, \u043c\u0456\u0441\u0442\u043e \u041c\u0438\u0440\u043e\u043d, 91294"
  },
  {
    "name": "\u041e\u043b\u044c\u0433\u0430 \u0414\u0430\u0440\u0430\u0433\u0430\u043d",
    "phone": "+38 085 056 48 41",
    "e-mail": "sviatoslav10@semenchenko.com",
    "address": "\u0432\u0443\u043b\u0438\u0446\u044f \u0419\u043e\u0441\u0438\u0444\u0430 \u0421\u0442\u0430\u0434\u043d\u0438\u043a\u0430, 578, \u0441\u0435\u043b\u0438\u0449\u0435 \u0414\u0430\u043d, 32804"
  },
  {
    "name": "\u0423\u0441\u0442\u0438\u043c \u041a\u0430\u0440\u043f\u0430",
    "phone": "079 330-96-50",
    "e-mail": "iukhym16@umanets-chervonenko.ukr",
    "address": "\u043d\u0430\u0431\u0435\u0440\u0435\u0436\u043d\u0430 \u0421\u043f\u043e\u0440\u0442\u0438\u0432\u043d\u0430, 942, \u043c\u0456\u0441\u0442\u043e \u041b\u0456\u043b\u0456\u044f, 13836"
  },
  {
    "name": "\u043f\u0430\u043d\u0456 \u041a\u0430\u043c\u0456\u043b\u043b\u0430 \u041c\u0430\u043a\u043e\u0433\u043e\u043d",
    "phone": "039 963 98 33",
    "e-mail": "oksanakylymnyk@rudko.com",
    "address": "\u043d\u0430\u0431\u0435\u0440\u0435\u0436\u043d\u0430 \u0414\u043c\u0438\u0442\u0440\u0430 \u0413\u0440\u0438\u0446\u0430\u044f, 0, \u0441\u0435\u043b\u0438\u0449\u0435 \u0413\u0435\u043d\u043d\u0430\u0434\u0456\u0439, 108984"
  },
  {
    "name": "\u0404\u0432\u0430 \u0426\u0438\u0431\u0443\u043b\u0435\u043d\u043a\u043e",
    "phone": "+38 012 273 85 48",
    "e-mail": "korbutadam@meta.ua",
    "address": "\u0432\u0443\u043b\u0438\u0446\u044f \u041c\u0438\u0445\u0430\u0439\u043b\u0430 \u0413\u0440\u0443\u0448\u0435\u0432\u0441\u044c\u043a\u043e\u0433\u043e, 16, \u043c\u0456\u0441\u0442\u043e \u0415\u0434\u0438\u0442\u0430, 04144"
  },
  {
    "name": "\u041b\u0456\u0437\u0430 \u0428\u0443\u0442\u044c\u043a\u043e",
    "phone": "+38 032 036-68-64",
    "e-mail": "nalyvaikohordii@babiak.com",
    "address": "\u0432\u0443\u043b\u0438\u0446\u044f 22 \u0421\u0456\u0447\u043d\u044f, 987, \u0445\u0443\u0442\u0456\u0440 \u0412\u043b\u0430\u0434\u0438\u0441\u043b\u0430\u0432, 86600"
  },
  {
    "name": "\u0406\u0432\u0430\u043d \u0411\u0430\u0442\u0456\u0433",
    "phone": "727-72-60",
    "e-mail": "roman76@babko-pavlenko.net",
    "address": "\u043d\u0430\u0431\u0435\u0440\u0435\u0436\u043d\u0430 \u041a\u0438\u0440\u0438\u043b\u043e - \u041c\u0435\u0444\u043e\u0434\u0456\u0457\u0432\u0441\u044c\u043a\u0430, 10, \u0441\u0435\u043b\u043e \u041b\u0456\u0437\u0430, 86856"
  },
  {
    "name": "\u0421\u043d\u0456\u0436\u0430\u043d\u0430 \u0417\u0430\u0431\u0456\u043b\u0430",
    "phone": "+38 057 309-12-02",
    "e-mail": "petrenkoavhustyn@dubyna.info",
    "address": "\u043d\u0430\u0431\u0435\u0440\u0435\u0436\u043d\u0430 \u041c\u0430\u0440\u043a\u0430 \u041a\u0440\u043e\u043f\u0438\u0432\u043d\u0438\u0446\u044c\u043a\u043e\u0433\u043e, 828, \u0441\u0435\u043b\u043e \u0410\u0440\u043a\u0430\u0434\u0456\u0439, 29225"
  },
  {
    "name": "\u042f\u0440\u0435\u043c\u0430 \u0406\u0432\u0430\u043d\u0438\u0447\u0443\u043a",
    "phone": "564-64-01",
    "e-mail": "khrystyna29@i.ua",
    "address": "\u043d\u0430\u0431\u0435\u0440\u0435\u0436\u043d\u0430 \u041e\u043b\u0435\u043a\u0441\u043d\u0434\u0440\u0430 \u0414\u043e\u0432\u0436\u0435\u043d\u043a\u0430, 91, \u0441\u0435\u043b\u043e \u041c\u0438\u0440\u043e\u0441\u043b\u0430\u0432, 102481"
  },
  {
    "name": "\u0413\u0430\u043d\u043d\u0430 \u042e\u0440\u0447\u0438\u0448\u0438\u043d",
    "phone": "+38 016 647 85 24",
    "e-mail": "mykyta65@alekseienko.ua",
    "address": "\u043d\u0430\u0431\u0435\u0440\u0435\u0436\u043d\u0430 \u0413\u0440\u044e\u043d\u0432\u0430\u043b\u044c\u0434\u0441\u044c\u043a\u0430, 8, \u0441\u0435\u043b\u0438\u0449\u0435 \u0404\u043b\u0438\u0441\u0435\u0439, 69127"
  },
  {
    "name": "\u041b\u0435\u0441\u044c \u042f\u0440\u0435\u043c\u0447\u0443\u043a",
    "phone": "444 43 77",
    "e-mail": "ndashenko@yatseniuk.org",
    "address": "\u043d\u0430\u0431\u0435\u0440\u0435\u0436\u043d\u0430 \u0417\u0435\u043b\u0435\u043d\u0430, 4, \u0441\u0435\u043b\u0438\u0449\u0435 \u0421\u0435\u0440\u0433\u0456\u0439, 101633"
  },
  {
    "name": "\u041e\u0440\u0438\u043d\u0430 \u041e\u043b\u0456\u0439\u043d\u0438\u043a",
    "phone": "334-27-02",
    "e-mail": "kostiantynhavriushenko@babak-chaban.ukr",
    "address": "\u043d\u0430\u0431\u0435\u0440\u0435\u0436\u043d\u0430 \u041c\u0430\u0440\u043a\u0430 \u041a\u0440\u043e\u043f\u0438\u0432\u043d\u0438\u0446\u044c\u043a\u043e\u0433\u043e, 1, \u0445\u0443\u0442\u0456\u0440 \u0414\u0435\u043c\u02bc\u044f\u043d, 14339"
  },
  {
    "name": "\u0404\u043b\u0438\u0441\u0430\u0432\u0435\u0442\u0430 \u0404\u043c\u0435\u043b\u044c\u044f\u043d\u0435\u043d\u043a\u043e",
    "phone": "057 065 09 74",
    "e-mail": "ievdokymenkoolha@pylypenko-datsenko.net",
    "address": "\u0432\u0443\u043b\u0438\u0446\u044f \u0412\u043e\u043b\u043e\u0434\u0438\u043c\u0438\u0440\u0430 \u0427\u0430\u043f\u0435\u043b\u044c\u0441\u044c\u043a\u043e\u0433\u043e, 21, \u0441\u0435\u043b\u0438\u0449\u0435 \u041c\u0438\u0445\u0430\u0439\u043b\u043e, 109412"
  },
  {
    "name": "\u042f\u0440\u043e\u0441\u043b\u0430\u0432\u0430 \u0411\u0430\u0439\u0440\u0430\u043a",
    "phone": "298-38-08",
    "e-mail": "albert39@gmail.com",
    "address": "\u043d\u0430\u0431\u0435\u0440\u0435\u0436\u043d\u0430 \u041a\u043e\u0432\u0430\u043b\u044c\u0441\u044c\u043a\u0430, 2, \u043c\u0456\u0441\u0442\u043e \u042e\u0441\u0442\u0438\u043d\u0430, 69072"
  },
  {
    "name": "\u0417\u043e\u0440\u044f\u043d \u0406\u0440\u0432\u0430\u043d\u0435\u0446\u044c",
    "phone": "086 299 40 32",
    "e-mail": "gkhudobiak@ilchenko.org",
    "address": "\u043d\u0430\u0431\u0435\u0440\u0435\u0436\u043d\u0430 \u041c\u0438\u0440\u043e\u0441\u043b\u0430\u0432\u0430 \u0422\u0443\u0440\u0430\u0448\u0430, 0, \u0445\u0443\u0442\u0456\u0440 \u0414\u0435\u043c\u02bc\u044f\u043d, 104332"
  },
  {
    "name": "\u041c\u0430\u0440\u0442\u0430 \u0411\u0430\u0440\u0430\u0431\u0430\u0448",
    "phone": "+38 (066) 988-45-70",
    "e-mail": "vbazylevych@email.ua",
    "address": "\u0432\u0443\u043b\u0438\u0446\u044f \u0414\u043c\u0438\u0442\u0440\u0430 \u0411\u0443\u0440\u043a\u0430, 7, \u0441\u0435\u043b\u043e \u0411\u043e\u0433\u0434\u0430\u043d\u043d\u0430, 86905"
  },
  {
    "name": "\u0410\u043d\u0436\u0435\u043b\u0430 \u0414\u0430\u043d\u0438\u043b\u044c\u0447\u0443\u043a",
    "phone": "+38 010 804 17 55",
    "e-mail": "davymukaiustym@chubai.ua",
    "address": "\u043d\u0430\u0431\u0435\u0440\u0435\u0436\u043d\u0430 \u0421\u0442\u0430\u043d\u0456\u0441\u043b\u0430\u0432\u0441\u044c\u043a\u0430, 0, \u0441\u0435\u043b\u043e \u0410\u043d\u0436\u0435\u043b\u0430, 63628"
  },
  {
    "name": "\u043f\u0430\u043d \u0421\u0442\u0435\u0444\u0430\u043d \u0411\u0430\u0439\u0434\u0430\u043a",
    "phone": "+38 087 470 91 73",
    "e-mail": "ezabila@gmail.com",
    "address": "\u0432\u0443\u043b\u0438\u0446\u044f \u041c\u0430\u043b\u0438\u0439 \u0420\u0438\u043d\u043e\u043a, 968, \u0441\u0435\u043b\u043e \u0419\u043e\u0441\u0438\u043f, 01701"
  }
]